module gitlab.com/blauwe-knop/vorderingenoverzicht/scheme-service

go 1.22.3

require (
	github.com/DATA-DOG/go-sqlmock v1.5.2
	github.com/go-chi/chi/v5 v5.2.0
	github.com/go-chi/cors v1.2.1
	github.com/huandu/xstrings v1.5.0
	github.com/jackc/pgx/v4 v4.18.3
	github.com/jessevdk/go-flags v1.6.1
	github.com/jmoiron/sqlx v1.4.0
	github.com/pkg/errors v0.9.1
	github.com/prometheus/client_golang v1.20.5
	github.com/stretchr/testify v1.10.0
	gitlab.com/blauwe-knop/common/health-checker v0.0.8
	go.uber.org/zap v1.27.0
)

//OWASP scan override of indirect dependencies:
require gopkg.in/yaml.v2 v2.4.0

require (
	github.com/beorn7/perks v1.0.1 // indirect
	github.com/cespare/xxhash/v2 v2.3.0 // indirect
	github.com/davecgh/go-spew v1.1.1 // indirect
	github.com/jackc/chunkreader/v2 v2.0.1 // indirect
	github.com/jackc/pgconn v1.14.3 // indirect
	github.com/jackc/pgio v1.0.0 // indirect
	github.com/jackc/pgpassfile v1.0.0 // indirect
	github.com/jackc/pgproto3/v2 v2.3.3 // indirect
	github.com/jackc/pgservicefile v0.0.0-20240606120523-5a60cdf6a761 // indirect
	github.com/jackc/pgtype v1.14.4 // indirect
	github.com/klauspost/compress v1.17.11 // indirect
	github.com/munnerz/goautoneg v0.0.0-20191010083416-a7dc8b61c822 // indirect
	github.com/pmezard/go-difflib v1.0.0 // indirect
	github.com/prometheus/client_model v0.6.1 // indirect
	github.com/prometheus/common v0.62.0 // indirect
	github.com/prometheus/procfs v0.15.1 // indirect
	go.uber.org/multierr v1.11.0 // indirect
	golang.org/x/crypto v0.32.0 // indirect
	golang.org/x/sys v0.29.0 // indirect
	golang.org/x/text v0.21.0 // indirect
	google.golang.org/protobuf v1.36.3 // indirect
	gopkg.in/yaml.v3 v3.0.1 // indirect
)
